sim/waves.vcd
$date
	Wed Jul 30 08:09:26 2025
$end
$version
	Icarus Verilog
$end
$timescale
	1ps
$end
$scope module test $end
$var reg 1 ! clk $end
$var reg 1 " reset $end
$scope module dut $end
$var wire 32 # MemOut [31:0] $end
$var wire 32 $ PCOut [31:0] $end
$var wire 1 % branch_taken $end
$var wire 1 ! clock $end
$var wire 1 & is_jr $end
$var wire 1 " reset $end
$var wire 1 ' zero_flag $end
$var wire 5 ( write_reg [4:0] $end
$var wire 32 ) write_data [31:0] $end
$var wire 32 * sign_ext_out [31:0] $end
$var wire 5 + shamt [4:0] $end
$var wire 32 , read_data2 [31:0] $end
$var wire 32 - read_data1 [31:0] $end
$var wire 32 . pc_plus4 [31:0] $end
$var wire 32 / nextPC [31:0] $end
$var wire 32 0 instruction [31:0] $end
$var wire 6 1 funct [5:0] $end
$var wire 32 2 dmem_out [31:0] $end
$var wire 32 3 branch_target [31:0] $end
$var wire 32 4 branch_offset [31:0] $end
$var wire 32 5 alu_in2 [31:0] $end
$var wire 4 6 alu_control [3:0] $end
$var wire 1 7 RegWrite $end
$var wire 1 8 RegDst $end
$var wire 32 9 PC [31:0] $end
$var wire 1 : MemtoReg $end
$var wire 1 ; MemWrite $end
$var wire 1 < MemRead $end
$var wire 1 = LuiEn $end
$var wire 1 > Jump $end
$var wire 1 ? Jr $end
$var wire 1 @ JalEn $end
$var wire 1 A ExtOp $end
$var wire 1 B Branch $end
$var wire 1 C ALUSrc $end
$var wire 32 D ALUResultOut [31:0] $end
$var wire 2 E ALUOp [1:0] $end
$scope module alu $end
$var wire 32 F In2 [31:0] $end
$var wire 5 G shamt [4:0] $end
$var wire 1 ' Zero_Flag $end
$var wire 4 H OP [3:0] $end
$var wire 32 I In1 [31:0] $end
$var reg 32 J result [31:0] $end
$upscope $end
$scope module ctrl $end
$var wire 6 K funct [5:0] $end
$var wire 6 L opcode [5:0] $end
$var reg 2 M ALUOp [1:0] $end
$var reg 1 C ALUSrc $end
$var reg 1 B Branch $end
$var reg 1 A ExtOp $end
$var reg 1 @ JalEn $end
$var reg 1 ? Jr $end
$var reg 1 > Jump $end
$var reg 1 = LuiEn $end
$var reg 1 < MemRead $end
$var reg 1 ; MemWrite $end
$var reg 1 : MemtoReg $end
$var reg 1 8 RegDst $end
$var reg 1 7 RegWrite $end
$upscope $end
$scope module dmem $end
$var wire 1 < MemRead $end
$var wire 1 ; MemWrite $end
$var wire 32 N address [31:0] $end
$var wire 1 ! clock $end
$var wire 32 O WriteData [31:0] $end
$var wire 32 P ReadData [31:0] $end
$upscope $end
$scope module ext $end
$var wire 1 A ExtOp $end
$var wire 16 Q imm [15:0] $end
$var reg 32 R ext_out [31:0] $end
$upscope $end
$scope module imem $end
$var wire 32 S i_out [31:0] $end
$var wire 32 T address [31:0] $end
$upscope $end
$scope module pc $end
$var wire 1 ! clock $end
$var wire 32 U nextPC [31:0] $end
$var wire 1 " reset $end
$var reg 32 V PC [31:0] $end
$upscope $end
$scope module regs $end
$var wire 5 W ReadAddr1 [4:0] $end
$var wire 5 X ReadAddr2 [4:0] $end
$var wire 1 7 RegWrite $end
$var wire 5 Y WriteAddr [4:0] $end
$var wire 32 Z WriteData [31:0] $end
$var wire 1 ! clock $end
$var wire 1 " reset $end
$var wire 32 [ ReadData2 [31:0] $end
$var wire 32 \ ReadData1 [31:0] $end
$scope begin $ivl_for_loop0 $end
$var integer 32 ] i [31:0] $end
$upscope $end
$upscope $end
$scope module uctrl $end
$var wire 2 ^ ALUOp [1:0] $end
$var wire 6 _ funct [5:0] $end
$var reg 4 ` OP_ula [3:0] $end
$upscope $end
$upscope $end
$upscope $end
$enddefinitions $end
#0
$dumpvars
b1 `
b1111 _
b0 ^
b100000 ]
b0 \
b0 [
b11110000000000000000 Z
b1 Y
b1 X
b0 W
b0 V
b100 U
b0 T
b111100000000010000000000001111 S
b1111 R
b1111 Q
bz P
b0 O
b1111 N
b0 M
b1111 L
bz K
b1111 J
b0 I
b1 H
b0 G
b1111 F
b0 E
b1111 D
1C
0B
1A
0@
0?
0>
1=
0<
0;
0:
b0 9
08
17
b1 6
b1111 5
b111100 4
b1000000 3
bz 2
b1111 1
b111100000000010000000000001111 0
b100 /
b100 .
b0 -
b0 ,
b0 +
b1111 *
b11110000000000000000 )
b1 (
0'
0&
0%
b0 $
bz #
1"
0!
$end
#5000
b100000 ]
1!
#10000
0!
0"
#15000
b11111010000000000000 )
b11111010000000000000 Z
b101000000000000000 4
b1010000000000000 5
b1010000000000000 F
b11111010000000000000 D
b11111010000000000000 J
b11111010000000000000 N
b11 E
b11 M
b11 ^
0A
0=
17
1C
b1010000000000000 *
b1010000000000000 R
b11110000000000000000 -
b11110000000000000000 I
b11110000000000000000 \
b1000 /
b1000 U
b1101 L
b1010000000000000 Q
b1 W
b0 1
b0 _
b110100001000011010000000000000 0
b110100001000011010000000000000 S
b11110000000000000000 ,
b11110000000000000000 O
b11110000000000000000 [
b101000000000001000 3
b1000 .
b100 $
b100 9
b100 T
b100 V
1!
#20000
0!
#25000
b11111010000000000000 )
b11111010000000000000 Z
b11001 (
b11001 Y
b11111111111111110010000010000000 4
b11111010000000000000 5
b11111010000000000000 F
x?
18
1A
17
0C
b10 E
b10 M
b10 ^
b11111111111111111100100000100000 *
b11111111111111111100100000100000 R
b1100 /
b1100 U
b11111010000000000000 D
b11111010000000000000 J
b11111010000000000000 N
b0 L
b1100100000100000 Q
b0 W
b100000 1
b100000 _
b0 -
b0 I
b0 \
b11111010000000000000 ,
b11111010000000000000 O
b11111010000000000000 [
b11100100000100000 0
b11100100000100000 S
b11111111111111110010000010001100 3
b1100 .
b1000 $
b1000 9
b1000 T
b1000 V
1!
#30000
0!
#35000
b11111010000000000001 )
b11111010000000000001 Z
b1 5
b1 F
b100 4
b11111010000000000001 D
b11111010000000000001 J
b11111010000000000001 N
b11001 (
b11001 Y
1C
0?
17
b0 E
b0 M
b0 ^
08
b1 *
b1 R
b11111010000000000000 -
b11111010000000000000 I
b11111010000000000000 \
b10000 /
b10000 U
b1000 L
b1 Q
b11001 X
b11001 W
b1 1
b1 _
b100011001110010000000000000001 0
b100011001110010000000000000001 S
b10100 3
b10000 .
b1100 $
b1100 9
b1100 T
b1100 V
1!
#40000
0!
#45000
b10100 )
b10100 Z
b1010000 4
b10100 5
b10100 F
b10000 (
b10000 Y
b10100 *
b10100 R
b10100 /
b10100 U
b10100 D
b10100 J
b10100 N
b10100 Q
b10000 X
b0 W
b10100 1
b10100 _
b0 -
b0 I
b0 \
b0 ,
b0 O
b0 [
b100000000100000000000000010100 0
b100000000100000000000000010100 S
b1100100 3
b10100 .
b10000 $
b10000 9
b10000 T
b10000 V
1!
#50000
0!
#55000
b1111 )
b1111 Z
b1111 D
b1111 J
b1111 N
b111100 4
b1111 5
b1111 F
b10001 (
b10001 Y
b1111 *
b1111 R
b11000 /
b11000 U
b1111 Q
b10001 X
b1111 1
b1111 _
b100000000100010000000000001111 0
b100000000100010000000000001111 S
b0 ,
b0 O
b0 [
b1010100 3
b11000 .
b10100 $
b10100 9
b10100 T
b10100 V
1!
#60000
0!
#65000
b100011 )
b100011 Z
b1000 (
b1000 Y
b10000000010000000 4
b100011 D
b100011 J
b100011 N
x?
b10 E
b10 M
b10 ^
18
17
0C
b100000000100000 *
b100000000100000 R
b10100 -
b10100 I
b10100 \
b11100 /
b11100 U
b0 L
b100000000100000 Q
b10000 W
b100000 1
b100000 _
b1111 ,
b1111 O
b1111 [
b10000100010100000000100000 0
b10000100010100000000100000 S
b10000000010011100 3
b11100 .
b11000 $
b11000 9
b11000 T
b11000 V
1!
#70000
0!
#75000
b101 )
b101 Z
b10010000010001000 4
b1001 (
b1001 Y
b101 D
b101 J
b101 N
b100100000100010 *
b100100000100010 R
b10 6
b10 H
b10 `
b100000 /
b100000 U
b100100000100010 Q
b100010 1
b100010 _
b10000100010100100000100010 0
b10000100010100100000100010 S
b10010000010101000 3
b100000 .
b11100 $
b11100 9
b11100 T
b11100 V
1!
#80000
0!
#85000
b101000 )
b101000 Z
b1010000 4
b10100 5
b10100 F
b1010 (
b1010 Y
b101000 D
b101000 J
b101000 N
1C
0?
17
b0 E
b0 M
b0 ^
08
b10100 *
b10100 R
b0 ,
b0 O
b0 [
b1 6
b1 H
b1 `
b100100 /
b100100 U
b1000 L
b10100 Q
b1010 X
b10100 1
b10100 _
b100010000010100000000000010100 0
b100010000010100000000000010100 S
b1110100 3
b100100 .
b100000 $
b100000 9
b100000 T
b100000 V
1!
#90000
0!
#95000
b100 )
b100 Z
b100 D
b100 J
b100 N
b11 6
b11 H
b11 `
b10110000010010000 4
b1111 5
b1111 F
b1011 (
b1011 Y
x?
b10 E
b10 M
b10 ^
18
17
0C
b101100000100100 *
b101100000100100 R
b101000 /
b101000 U
b0 L
b101100000100100 Q
b10001 X
b100100 1
b100100 _
b10000100010101100000100100 0
b10000100010101100000100100 S
b1111 ,
b1111 O
b1111 [
b10110000010111000 3
b101000 .
b100100 $
b100100 9
b100100 T
b100100 V
1!
#100000
0!
#105000
b11111 )
b11111 Z
b11000000010010100 4
b1100 (
b1100 Y
b11111 D
b11111 J
b11111 N
b110000000100101 *
b110000000100101 R
b100 6
b100 H
b100 `
b101100 /
b101100 U
b110000000100101 Q
b100101 1
b100101 _
b10000100010110000000100101 0
b10000100010110000000100101 S
b11000000011000000 3
b101100 .
b101000 $
b101000 9
b101000 T
b101000 V
1!
#110000
0!
#115000
b11011 )
b11011 Z
b11010000010011000 4
b1101 (
b1101 Y
b11011 D
b11011 J
b11011 N
b110100000100110 *
b110100000100110 R
b101 6
b101 H
b101 `
b110000 /
b110000 U
b110100000100110 Q
b100110 1
b100110 _
b10000100010110100000100110 0
b10000100010110100000100110 S
b11010000011001000 3
b110000 .
b101100 $
b101100 9
b101100 T
b101100 V
1!
#120000
0!
#125000
b11111111111111111111111111100000 )
b11111111111111111111111111100000 Z
b11100000010011100 4
b1110 (
b1110 Y
b11111111111111111111111111100000 D
b11111111111111111111111111100000 J
b11111111111111111111111111100000 N
b111000000100111 *
b111000000100111 R
b110 6
b110 H
b110 `
b110100 /
b110100 U
b111000000100111 Q
b100111 1
b100111 _
b10000100010111000000100111 0
b10000100010111000000100111 S
b11100000011010000 3
b110100 .
b110000 $
b110000 9
b110000 T
b110000 V
1!
#130000
0!
#135000
b11111010000000000010 )
b11111010000000000010 Z
b100 4
b1 5
b1 F
b11001 (
b11001 Y
b11111010000000000010 D
b11111010000000000010 J
b11111010000000000010 N
1C
0?
17
b0 E
b0 M
b0 ^
08
b1 *
b1 R
b11111010000000000001 ,
b11111010000000000001 O
b11111010000000000001 [
b11111010000000000001 -
b11111010000000000001 I
b11111010000000000001 \
b1 6
b1 H
b1 `
b111000 /
b111000 U
b1000 L
b1 Q
b11001 X
b11001 W
b1 1
b1 _
b100011001110010000000000000001 0
b100011001110010000000000000001 S
b111100 3
b111000 .
b110100 $
b110100 9
b110100 T
b110100 V
1!
#140000
0!
#145000
b101 )
b101 Z
b10100 4
b101 5
b101 F
b10000 (
b10000 Y
b101 *
b101 R
b111100 /
b111100 U
b101 D
b101 J
b101 N
b101 Q
b10000 X
b0 W
b101 1
b101 _
b0 -
b0 I
b0 \
b10100 ,
b10100 O
b10100 [
b100000000100000000000000000101 0
b100000000100000000000000000101 S
b1010000 3
b111100 .
b111000 $
b111000 9
b111000 T
b111000 V
1!
#150000
0!
#155000
b10100 )
b10100 Z
b10100 D
b10100 J
b10100 N
b1010000 4
b10100 5
b10100 F
b10001 (
b10001 Y
b10100 *
b10100 R
b1000000 /
b1000000 U
b10100 Q
b10001 X
b10100 1
b10100 _
b100000000100010000000000010100 0
b100000000100010000000000010100 S
b1111 ,
b1111 O
b1111 [
b10010000 3
b1000000 .
b111100 $
b111100 9
b111100 T
b111100 V
1!
#160000
0!
#165000
b1001 6
b1001 H
b1001 `
b11111111111111100000001000000000 4
b101 5
b101 F
b10000 (
b10000 Y
x?
b10 E
b10 M
b10 ^
18
17
0C
b11111111111111111000000010000000 *
b11111111111111111000000010000000 R
b1000100 /
b1000100 U
b0 L
b1000000010000000 Q
b10000 X
b0 1
b0 _
b10 +
b10 G
b101 ,
b101 O
b101 [
b100001000000010000000 0
b100001000000010000000 S
b11111111111111100000001001000100 3
b1000100 .
b1000000 $
b1000000 9
b1000000 T
b1000000 V
1!
#170000
0!
#175000
b0 )
b0 Z
1%
b11111111111111111111111111111000 4
b10001 (
b10001 Y
1B
0?
07
b1 E
b1 M
b1 ^
08
b11111111111111111111111111111110 *
b11111111111111111111111111111110 R
b10100 -
b10100 I
b10100 \
b10 6
b10 H
b10 `
b1000000 /
b1000000 U
1'
b0 D
b0 J
b0 N
b100 L
b1111111111111110 Q
b10001 X
b10000 W
b111110 1
b111110 _
b11111 +
b11111 G
b10100 5
b10100 F
b10010000100011111111111111110 0
b10010000100011111111111111110 S
b10100 ,
b10100 O
b10100 [
b1000000 3
b1001000 .
b1000100 $
b1000100 9
b1000100 T
b1000100 V
1!
#180000
0!
#185000
b1010000 )
b1010000 Z
b1001 6
b1001 H
b1001 `
0%
b11111111111111100000001000000000 4
0'
b1010000 D
b1010000 J
b1010000 N
b10000 (
b10000 Y
x?
17
18
b10 E
b10 M
b10 ^
0B
b11111111111111111000000010000000 *
b11111111111111111000000010000000 R
b0 -
b0 I
b0 \
b1000100 /
b1000100 U
b0 L
b1000000010000000 Q
b10000 X
b0 W
b0 1
b0 _
b10 +
b10 G
b100001000000010000000 0
b100001000000010000000 S
b11111111111111100000001001000100 3
b1000100 .
b1000000 $
b1000000 9
b1000000 T
b1000000 V
1!
#190000
0!
#195000
b111100 )
b111100 Z
0%
b11111111111111111111111111111000 4
b10001 (
b10001 Y
1B
0?
07
b1 E
b1 M
b1 ^
08
b11111111111111111111111111111110 *
b11111111111111111111111111111110 R
b1010000 -
b1010000 I
b1010000 \
b10 6
b10 H
b10 `
b1001000 /
b1001000 U
0'
b111100 D
b111100 J
b111100 N
b100 L
b1111111111111110 Q
b10001 X
b10000 W
b111110 1
b111110 _
b11111 +
b11111 G
b10100 5
b10100 F
b10010000100011111111111111110 0
b10010000100011111111111111110 S
b10100 ,
b10100 O
b10100 [
b1000000 3
b1001000 .
b1000100 $
b1000100 9
b1000100 T
b1000100 V
1!
#200000
0!
#205000
b11111010000000000011 )
b11111010000000000011 Z
b1 6
b1 H
b1 `
b100 4
b1 5
b1 F
b11111010000000000011 D
b11111010000000000011 J
b11111010000000000011 N
b11001 (
b11001 Y
17
1C
b0 E
b0 M
b0 ^
0B
b1 *
b1 R
b11111010000000000010 ,
b11111010000000000010 O
b11111010000000000010 [
b11111010000000000010 -
b11111010000000000010 I
b11111010000000000010 \
b1001100 /
b1001100 U
b1000 L
b1 Q
b11001 X
b11001 W
b1 1
b1 _
b0 +
b0 G
b100011001110010000000000000001 0
b100011001110010000000000000001 S
b1010000 3
b1001100 .
b1001000 $
b1001000 9
b1001000 T
b1001000 V
1!
#210000
0!
#215000
b101 )
b101 Z
b10100 4
b101 5
b101 F
b10000 (
b10000 Y
b101 *
b101 R
b1010000 /
b1010000 U
b101 Q
b10000 X
b0 W
b101 1
b101 _
b101 D
b101 J
b101 N
b100000000100000000000000000101 0
b100000000100000000000000000101 S
b0 -
b0 I
b0 \
b1010000 ,
b1010000 O
b1010000 [
b1100100 3
b1010000 .
b1001100 $
b1001100 9
b1001100 T
b1001100 V
1!
#220000
0!
#225000
b1010000 )
b1010000 Z
b1010000 D
b1010000 J
b1010000 N
b101000000 4
b1010000 5
b1010000 F
b10001 (
b10001 Y
b1010000 *
b1010000 R
b1010100 /
b1010100 U
b1010000 Q
b10001 X
b10000 1
b10000 _
b1 +
b1 G
b10100 ,
b10100 O
b10100 [
b100000000100010000000001010000 0
b100000000100010000000001010000 S
b110010100 3
b1010100 .
b1010000 $
b1010000 9
b1010000 T
b1010000 V
1!
#230000
0!
#235000
b10 )
b10 Z
b10 D
b10 J
b10 N
b1000 4
b10 5
b10 F
b1000 (
b1000 Y
b10 *
b10 R
b1011000 /
b1011000 U
b10 Q
b1000 X
b10 1
b10 _
b0 +
b0 G
b100000000010000000000000000010 0
b100000000010000000000000000010 S
b100011 ,
b100011 O
b100011 [
b1100000 3
b1011000 .
b1010100 $
b1010100 9
b1010100 T
b1010100 V
1!
#240000
0!
#245000
b10100 )
b10100 Z
b1100 6
b1100 H
b1100 `
b11111111111111100000000000010000 4
b101 5
b101 F
b10100 D
b10100 J
b10100 N
b10000 (
b10000 Y
x?
b10 E
b10 M
b10 ^
18
17
0C
b11111111111111111000000000000100 *
b11111111111111111000000000000100 R
b10 -
b10 I
b10 \
b1011100 /
b1011100 U
b0 L
b1000000000000100 Q
b10000 X
b1000 W
b100 1
b100 _
b101 ,
b101 O
b101 [
b1000100001000000000000100 0
b1000100001000000000000100 S
b11111111111111100000000001101100 3
b1011100 .
b1011000 $
b1011000 9
b1011000 T
b1011000 V
1!
#250000
0!
#255000
b11111111111111111111111111000100 )
b11111111111111111111111111000100 Z
1%
b11111111111111111111111111111000 4
b10001 (
b10001 Y
1B
0?
07
b1 E
b1 M
b1 ^
08
b11111111111111111111111111111110 *
b11111111111111111111111111111110 R
b10100 -
b10100 I
b10100 \
b10 6
b10 H
b10 `
b1011000 /
b1011000 U
b11111111111111111111111111000100 D
b11111111111111111111111111000100 J
b11111111111111111111111111000100 N
b101 L
b1111111111111110 Q
b10001 X
b10000 W
b111110 1
b111110 _
b11111 +
b11111 G
b1010000 5
b1010000 F
b10110000100011111111111111110 0
b10110000100011111111111111110 S
b1010000 ,
b1010000 O
b1010000 [
b1011000 3
b1100000 .
b1011100 $
b1011100 9
b1011100 T
b1011100 V
1!
#260000
0!
#265000
b1010000 )
b1010000 Z
b1100 6
b1100 H
b1100 `
0%
b11111111111111100000000000010000 4
b10100 5
b10100 F
b1010000 D
b1010000 J
b1010000 N
b10000 (
b10000 Y
x?
17
18
b10 E
b10 M
b10 ^
0B
b11111111111111111000000000000100 *
b11111111111111111000000000000100 R
b10100 ,
b10100 O
b10100 [
b10 -
b10 I
b10 \
b1011100 /
b1011100 U
b0 L
b1000000000000100 Q
b10000 X
b1000 W
b100 1
b100 _
b0 +
b0 G
b1000100001000000000000100 0
b1000100001000000000000100 S
b11111111111111100000000001101100 3
b1011100 .
b1011000 $
b1011000 9
b1011000 T
b1011000 V
1!
#270000
0!
#275000
b0 )
b0 Z
1'
0%
b11111111111111111111111111111000 4
b10001 (
b10001 Y
1B
0?
07
b1 E
b1 M
b1 ^
08
b11111111111111111111111111111110 *
b11111111111111111111111111111110 R
b1010000 -
b1010000 I
b1010000 \
b10 6
b10 H
b10 `
b1100000 /
b1100000 U
b0 D
b0 J
b0 N
b101 L
b1111111111111110 Q
b10001 X
b10000 W
b111110 1
b111110 _
b11111 +
b11111 G
b1010000 5
b1010000 F
b10110000100011111111111111110 0
b10110000100011111111111111110 S
b1010000 ,
b1010000 O
b1010000 [
b1011000 3
b1100000 .
b1011100 $
b1011100 9
b1011100 T
b1011100 V
1!
#280000
0!
#285000
b11111010000000000100 )
b11111010000000000100 Z
b1 6
b1 H
b1 `
b100 4
b1 5
b1 F
0'
b11111010000000000100 D
b11111010000000000100 J
b11111010000000000100 N
b11001 (
b11001 Y
17
1C
b0 E
b0 M
b0 ^
0B
b1 *
b1 R
b11111010000000000011 ,
b11111010000000000011 O
b11111010000000000011 [
b11111010000000000011 -
b11111010000000000011 I
b11111010000000000011 \
b1100100 /
b1100100 U
b1000 L
b1 Q
b11001 X
b11001 W
b1 1
b1 _
b0 +
b0 G
b100011001110010000000000000001 0
b100011001110010000000000000001 S
b1101000 3
b1100100 .
b1100000 $
b1100000 9
b1100000 T
b1100000 V
1!
#290000
0!
#295000
b11111111111111111111111111111110 )
b11111111111111111111111111111110 Z
b11111111111111111111111111111000 4
b11111111111111111111111111111110 5
b11111111111111111111111111111110 F
b10000 (
b10000 Y
b11111111111111111111111111111110 *
b11111111111111111111111111111110 R
b1101000 /
b1101000 U
b1111111111111110 Q
b10000 X
b0 W
b111110 1
b111110 _
b11111 +
b11111 G
b11111111111111111111111111111110 D
b11111111111111111111111111111110 J
b11111111111111111111111111111110 N
b100000000100001111111111111110 0
b100000000100001111111111111110 S
b0 -
b0 I
b0 \
b1010000 ,
b1010000 O
b1010000 [
b1100000 3
b1101000 .
b1100100 $
b1100100 9
b1100100 T
b1100100 V
1!
#300000
0!
#305000
b11111111111111111111111111111000 )
b11111111111111111111111111111000 Z
b11111111111111111111111111111000 D
b11111111111111111111111111111000 J
b11111111111111111111111111111000 N
b11111111111111111111111111100000 4
b11111111111111111111111111111000 5
b11111111111111111111111111111000 F
b10001 (
b10001 Y
b11111111111111111111111111111000 *
b11111111111111111111111111111000 R
b1101100 /
b1101100 U
b1111111111111000 Q
b10001 X
b111000 1
b111000 _
b1010000 ,
b1010000 O
b1010000 [
b100000000100011111111111111000 0
b100000000100011111111111111000 S
b1001100 3
b1101100 .
b1101000 $
b1101000 9
b1101000 T
b1101000 V
1!
#310000
0!
#315000
b11111111111111111111111111111100 )
b11111111111111111111111111111100 Z
b11111111111111111111111111111100 D
b11111111111111111111111111111100 J
b11111111111111111111111111111100 N
b1011 6
b1011 H
b1011 `
b11111111111111100010000100001100 4
x?
b10 E
b10 M
b10 ^
18
17
0C
b11111111111111111000100001000011 *
b11111111111111111000100001000011 R
b1110000 /
b1110000 U
b0 L
b1000100001000011 Q
b11 1
b11 _
b1 +
b1 G
b100011000100001000011 0
b100011000100001000011 S
b11111111111111111111111111111000 ,
b11111111111111111111111111111000 O
b11111111111111111111111111111000 [
b11111111111111100010000101111100 3
b1110000 .
b1101100 $
b1101100 9
b1101100 T
b1101100 V
1!
#320000
0!
#325000
b0 )
b0 Z
b10000000010101000 4
b1000 (
b1000 Y
1'
b0 D
b0 J
b0 N
b100000000101010 *
b100000000101010 R
b11111111111111111111111111111110 -
b11111111111111111111111111111110 I
b11111111111111111111111111111110 \
b111 6
b111 H
b111 `
b1110100 /
b1110100 U
b11111111111111111111111111111100 5
b11111111111111111111111111111100 F
b100000000101010 Q
b10000 W
b101010 1
b101010 _
b0 +
b0 G
b11111111111111111111111111111100 ,
b11111111111111111111111111111100 O
b11111111111111111111111111111100 [
b10000100010100000000101010 0
b10000100010100000000101010 S
b10000000100011100 3
b1110100 .
b1110000 $
b1110000 9
b1110000 T
b1110000 V
1!
#330000
0!
#335000
b0 )
b0 Z
1%
b11111111111111111111111111110100 4
b0 5
b0 F
b0 (
b0 Y
1'
b0 D
b0 J
b0 N
1B
0?
07
b1 E
b1 M
b1 ^
08
b11111111111111111111111111111101 *
b11111111111111111111111111111101 R
b0 ,
b0 O
b0 [
b0 -
b0 I
b0 \
b10 6
b10 H
b10 `
b1101100 /
b1101100 U
b100 L
b1111111111111101 Q
b0 X
b1000 W
b111101 1
b111101 _
b11111 +
b11111 G
b10001000000001111111111111101 0
b10001000000001111111111111101 S
b1101100 3
b1111000 .
b1110100 $
b1110100 9
b1110100 T
b1110100 V
1!
#340000
0!
#345000
b11111111111111111111111111111110 )
b11111111111111111111111111111110 Z
0'
b11111111111111111111111111111110 D
b11111111111111111111111111111110 J
b11111111111111111111111111111110 N
b1011 6
b1011 H
b1011 `
0%
b11111111111111100010000100001100 4
b11111111111111111111111111111100 5
b11111111111111111111111111111100 F
b10001 (
b10001 Y
x?
17
18
b10 E
b10 M
b10 ^
0B
b11111111111111111000100001000011 *
b11111111111111111000100001000011 R
b11111111111111111111111111111100 ,
b11111111111111111111111111111100 O
b11111111111111111111111111111100 [
b1110000 /
b1110000 U
b0 L
b1000100001000011 Q
b10001 X
b0 W
b11 1
b11 _
b1 +
b1 G
b100011000100001000011 0
b100011000100001000011 S
b11111111111111100010000101111100 3
b1110000 .
b1101100 $
b1101100 9
b1101100 T
b1101100 V
1!
#350000
0!
#355000
b0 )
b0 Z
b10000000010101000 4
b1000 (
b1000 Y
1'
b0 D
b0 J
b0 N
b100000000101010 *
b100000000101010 R
b11111111111111111111111111111110 -
b11111111111111111111111111111110 I
b11111111111111111111111111111110 \
b111 6
b111 H
b111 `
b1110100 /
b1110100 U
b100000000101010 Q
b10000 W
b101010 1
b101010 _
b0 +
b0 G
b11111111111111111111111111111110 5
b11111111111111111111111111111110 F
b10000100010100000000101010 0
b10000100010100000000101010 S
b11111111111111111111111111111110 ,
b11111111111111111111111111111110 O
b11111111111111111111111111111110 [
b10000000100011100 3
b1110100 .
b1110000 $
b1110000 9
b1110000 T
b1110000 V
1!
#360000
0!
#365000
b0 )
b0 Z
1%
b11111111111111111111111111110100 4
b0 5
b0 F
b0 (
b0 Y
1'
b0 D
b0 J
b0 N
1B
0?
07
b1 E
b1 M
b1 ^
08
b11111111111111111111111111111101 *
b11111111111111111111111111111101 R
b0 ,
b0 O
b0 [
b0 -
b0 I
b0 \
b10 6
b10 H
b10 `
b1101100 /
b1101100 U
b100 L
b1111111111111101 Q
b0 X
b1000 W
b111101 1
b111101 _
b11111 +
b11111 G
b10001000000001111111111111101 0
b10001000000001111111111111101 S
b1101100 3
b1111000 .
b1110100 $
b1110100 9
b1110100 T
b1110100 V
1!
#370000
0!
#375000
b11111111111111111111111111111111 )
b11111111111111111111111111111111 Z
0'
b11111111111111111111111111111111 D
b11111111111111111111111111111111 J
b11111111111111111111111111111111 N
b1011 6
b1011 H
b1011 `
0%
b11111111111111100010000100001100 4
b11111111111111111111111111111110 5
b11111111111111111111111111111110 F
b10001 (
b10001 Y
x?
17
18
b10 E
b10 M
b10 ^
0B
b11111111111111111000100001000011 *
b11111111111111111000100001000011 R
b11111111111111111111111111111110 ,
b11111111111111111111111111111110 O
b11111111111111111111111111111110 [
b1110000 /
b1110000 U
b0 L
b1000100001000011 Q
b10001 X
b0 W
b11 1
b11 _
b1 +
b1 G
b100011000100001000011 0
b100011000100001000011 S
b11111111111111100010000101111100 3
b1110000 .
b1101100 $
b1101100 9
b1101100 T
b1101100 V
1!
#380000
0!
#385000
b1 )
b1 Z
b10000000010101000 4
b1000 (
b1000 Y
b1 D
b1 J
b1 N
b100000000101010 *
b100000000101010 R
b11111111111111111111111111111110 -
b11111111111111111111111111111110 I
b11111111111111111111111111111110 \
b111 6
b111 H
b111 `
b1110100 /
b1110100 U
b11111111111111111111111111111111 5
b11111111111111111111111111111111 F
b100000000101010 Q
b10000 W
b101010 1
b101010 _
b0 +
b0 G
b11111111111111111111111111111111 ,
b11111111111111111111111111111111 O
b11111111111111111111111111111111 [
b10000100010100000000101010 0
b10000100010100000000101010 S
b10000000100011100 3
b1110100 .
b1110000 $
b1110000 9
b1110000 T
b1110000 V
1!
#390000
0!
#395000
0%
b1 )
b1 Z
b11111111111111111111111111110100 4
b0 5
b0 F
b0 (
b0 Y
0'
b1 D
b1 J
b1 N
1B
0?
07
b1 E
b1 M
b1 ^
08
b11111111111111111111111111111101 *
b11111111111111111111111111111101 R
b0 ,
b0 O
b0 [
b1 -
b1 I
b1 \
b10 6
b10 H
b10 `
b1111000 /
b1111000 U
b100 L
b1111111111111101 Q
b0 X
b1000 W
b111101 1
b111101 _
b11111 +
b11111 G
b10001000000001111111111111101 0
b10001000000001111111111111101 S
b1101100 3
b1111000 .
b1110100 $
b1110100 9
b1110100 T
b1110100 V
1!
#400000
0!
#405000
b11111010000000000101 )
b11111010000000000101 Z
b1 6
b1 H
b1 `
b100 4
b1 5
b1 F
b11111010000000000101 D
b11111010000000000101 J
b11111010000000000101 N
b11001 (
b11001 Y
17
1C
b0 E
b0 M
b0 ^
0B
b1 *
b1 R
b11111010000000000100 ,
b11111010000000000100 O
b11111010000000000100 [
b11111010000000000100 -
b11111010000000000100 I
b11111010000000000100 \
b1111100 /
b1111100 U
b1000 L
b1 Q
b11001 X
b11001 W
b1 1
b1 _
b0 +
b0 G
b100011001110010000000000000001 0
b100011001110010000000000000001 S
b10000000 3
b1111100 .
b1111000 $
b1111000 9
b1111000 T
b1111000 V
1!
#410000
0!
#415000
b1100 )
b1100 Z
b110000 4
b1100 5
b1100 F
b10110 (
b10110 Y
b1100 *
b1100 R
b10000000 /
b10000000 U
b1100 Q
b10110 X
b0 W
b1100 1
b1100 _
b1100 D
b1100 J
b1100 N
b100000000101100000000000001100 0
b100000000101100000000000001100 S
b0 -
b0 I
b0 \
b0 ,
b0 O
b0 [
b10110000 3
b10000000 .
b1111100 $
b1111100 9
b1111100 T
b1111100 V
1!
#420000
0!
#425000
b101000 )
b101000 Z
b101000 D
b101000 J
b101000 N
b10100000 4
b101000 5
b101000 F
b10111 (
b10111 Y
b101000 *
b101000 R
b10000100 /
b10000100 U
b101000 Q
b10111 X
b101000 1
b101000 _
b0 ,
b0 O
b0 [
b100000000101110000000000101000 0
b100000000101110000000000101000 S
b100100100 3
b10000100 .
b10000000 $
b10000000 9
b10000000 T
b10000000 V
1!
#430000
0!
#435000
b1010 )
b1010 Z
b1010 D
b1010 J
b1010 N
b101000 4
b1010 5
b1010 F
b10000 (
b10000 Y
b1010 *
b1010 R
b10001000 /
b10001000 U
b1010 Q
b10000 X
b1010 1
b1010 _
b100000000100000000000000001010 0
b100000000100000000000000001010 S
b11111111111111111111111111111110 ,
b11111111111111111111111111111110 O
b11111111111111111111111111111110 [
b10110000 3
b10001000 .
b10000100 $
b10000100 9
b10000100 T
b10000100 V
1!
#440000
0!
